\relax 
\providecommand\hyper@newdestlabel[2]{}
\providecommand\HyperFirstAtBeginDocument{\AtBeginDocument}
\HyperFirstAtBeginDocument{\ifx\hyper@anchor\@undefined
\global\let\oldcontentsline\contentsline
\gdef\contentsline#1#2#3#4{\oldcontentsline{#1}{#2}{#3}}
\global\let\oldnewlabel\newlabel
\gdef\newlabel#1#2{\newlabelxx{#1}#2}
\gdef\newlabelxx#1#2#3#4#5#6{\oldnewlabel{#1}{{#2}{#3}}}
\AtEndDocument{\ifx\hyper@anchor\@undefined
\let\contentsline\oldcontentsline
\let\newlabel\oldnewlabel
\fi}
\fi}
\global\let\hyper@last\relax 
\gdef\HyperFirstAtBeginDocument#1{#1}
\providecommand\HyField@AuxAddToFields[1]{}
\providecommand\HyField@AuxAddToCoFields[2]{}
\catcode `"\active 
\catcode `-\active 
\babel@aux{czech}{}
\@writefile{toc}{\contentsline {section}{\numberline {1}\IeC {\'U}vod}{2}{section.1}}
\@writefile{toc}{\contentsline {section}{\numberline {2}Zad\IeC {\'a}n\IeC {\'\i }}{2}{section.2}}
\@writefile{toc}{\contentsline {subsection}{\numberline {2.1}T\IeC {\'e}ma pr\IeC {\'a}ce}{2}{subsection.2.1}}
\@writefile{toc}{\contentsline {subsection}{\numberline {2.2}Informace k zad\IeC {\'a}n\IeC {\'\i } a omezen\IeC {\'\i }m}{5}{subsection.2.2}}
\@writefile{toc}{\contentsline {section}{\numberline {3}Popis implementace}{5}{section.3}}
\@writefile{toc}{\contentsline {subsection}{\numberline {3.1}Jazyk a prost\IeC {\v r}ed\IeC {\'\i }}{5}{subsection.3.1}}
\@writefile{toc}{\contentsline {subsection}{\numberline {3.2}Datov\IeC {\'e} struktury}{6}{subsection.3.2}}
\@writefile{toc}{\contentsline {subsubsection}{\numberline {3.2.1}Spou\IeC {\v s}t\IeC {\v e}c\IeC {\'\i } z\IeC {\'a}znam}{6}{subsubsection.3.2.1}}
\@writefile{toc}{\contentsline {subsubsection}{\numberline {3.2.2}MFT z\IeC {\'a}znam}{6}{subsubsection.3.2.2}}
\@writefile{toc}{\contentsline {subsubsection}{\numberline {3.2.3}MFT fragment}{6}{subsubsection.3.2.3}}
\@writefile{toc}{\contentsline {subsubsection}{\numberline {3.2.4}Adres\IeC {\'a}\IeC {\v r}}{6}{subsubsection.3.2.4}}
\@writefile{toc}{\contentsline {subsection}{\numberline {3.3}\IeC {\v C}ten\IeC {\'\i } a z\IeC {\'a}pis dat}{7}{subsection.3.3}}
\@writefile{toc}{\contentsline {section}{\numberline {4}U\IeC {\v z}ivatelsk\IeC {\'a} p\IeC {\v r}\IeC {\'\i }ru\IeC {\v c}ka}{7}{section.4}}
\@writefile{toc}{\contentsline {subsection}{\numberline {4.1}P\IeC {\v r}eklad aplikace}{7}{subsection.4.1}}
\@writefile{toc}{\contentsline {subsection}{\numberline {4.2}Spu\IeC {\v s}t\IeC {\v e}n\IeC {\'\i } aplikace}{7}{subsection.4.2}}
\@writefile{toc}{\contentsline {section}{\numberline {5}Z\IeC {\'a}v\IeC {\v e}r}{7}{section.5}}
